[
  {
    "type": 1,
    "image": "/images/foods/food1.png",
    "created_at": "2022-03-29 05:21"
  },
  {
    "type": 2,
    "image": "/images/foods/food2.png",
    "created_at": "2022-03-29 05:21"
  },
  {
    "type": 3,
    "image": "/images/foods/food3.png",
    "created_at": "2022-03-29 05:21"
  },
  {
    "type": 4,
    "image": "/images/foods/food4.png",
    "created_at": "2022-03-29 05:21"
  },
  {
    "type": 1,
    "image": "/images/foods/food5.png",
    "created_at": "2022-03-29 05:21"
  },
  {
    "type": 2,
    "image": "/images/foods/food6.png",
    "created_at": "2022-03-29 05:21"
  },
  {
    "type": 3,
    "image": "/images/foods/food7.png",
    "created_at": "2022-03-29 05:21"
  },
  {
    "type": 4,
    "image": "/images/foods/food8.png",
    "created_at": "2022-03-29 05:21"
  },
  {
    "type": 1,
    "image": "/images/foods/food5.png",
    "created_at": "2022-03-29 05:21"
  },
  {
    "type": 2,
    "image": "/images/foods/food6.png",
    "created_at": "2022-03-29 05:21"
  },
  {
    "type": 3,
    "image": "/images/foods/food7.png",
    "created_at": "2022-03-29 05:21"
  },
  {
    "type": 4,
    "image": "/images/foods/food8.png",
    "created_at": "2022-03-29 05:21"
  }
]